12147:
3.4
3.5
3.7
3.1
3.3
12149:
2.6
2.4
3.2
2.7
2.4
2.8
2.4
3.2
3.2
3.5
2.3
2.6
2.6
2.3
2.3
2.2
2.9
2.5
2.2
2.7
1215:
3.3
3.2
3.4
3.6
3.2
3.5
3.3
2.8
3.2
12150:
4.1
12151:
3.3
3.5
12152:
2.5
2.6
2.3
12153:
2.9
3.3
3.7
4
3.5
3.2
12154:
3.2
4
3.6
3.2
3
3.7
3.3
3.1
3.8
3
12155:
4.6
3.7
3.3
4.1
4.2
4.1
4.1
4.5
3.9
4
4.2
2.8
4
4.1
3.8
4.1
4.2
4
4
4.4
4.6
3.9
3.9
4
4.2
3.4
3.8
4.6
3.7
4.2
4.5
4.9
4.2
4.2
4.3
4.5
3.7
3.6
3.6
4.4
3.9
4.3
3.7
3.6
4.3
3.7
4.5
4.1
4.4
4
3.9
4
4.7
3.8
3.7
4.2
4.4
4.2
4
4.6
4
4.1
4.3
3.9
4.3
4
4.2
4.2
4.2
4
4
4.4
4.2
3.9
4.2
3.7
4
4.5
4.3
3.7
4
4.1
4.1
4.1
4.1
3.4
4
4.5
4.1
4
4.4
4.2
3.8
4
3.7
3.5
4
4.2
4.4
4.1
4.3
3.8
4.2
4.5
4
4.2
4.2
4.3
3.5
3.7
4.6
4.3
3.8
3.2
4.6
3.5
3.9
3.7
3.4
3.9
4.1
3.4
3.9
3.9
4.2
4.5
3.8
4.3
3.5
4.1
4.2
5
4.1
4.5
4.2
3.6
3.9
4
4.3
3.8
3.7
3.7
3.8
4.6
4.7
4.1
4
4.6
4.5
4
3.9
4.6
4.1
4
3.6
4.4
4.2
4.3
4.2
3.9
4.3
3.9
4.1
4.1
4.5
3.4
3.7
3.8
4.9
3.6
4
3.9
3.4
3.6
3.9
3.8
3.8
4.1
4.5
3.7
4.6
3.9
4.6
3.8
4.3
4.4
4.3
3.9
3.7
4.2
4.3
4.4
4.3
4.1
4
4.6
4.6
4.3
3.9
4
4.2
4.2
3.7
3.8
4.1
3.8
3.9
4.1
4.2
4.1
4.2
4.2
4.1
4
4.6
3.7
3.9
3.9
4.3
3.3
4.3
3.7
4.4
4.1
4
4.3
4.8
4.4
3.9
3.6
3.4
4.1
4.5
4.2
3.1
4.1
3.5
3.9
3.7
4.4
4.2
4.3
4.3
3.5
4
4.2
4
4.7
4.2
4.2
4.7
4.1
4.2
4
4.6
4.4
4
4.7
3.6
3.9
4.2
3.9
4
3.6
4.3
3.5
4.8
4.6
4
4.2
4.2
4.1
4.2
4.9
4.1
4.3
4.1
4.1
4
4.1
4.3
4.3
4.6
3.3
4.5
4
4.2
4.2
4.1
4.5
3.4
3.8
4.2
4.1
3.9
4
4.2
3.6
4.2
3.7
4.4
3.8
4.2
3.4
4.1
4.6
4
4
4
3.6
4
4.3
4.2
4.2
5
3.9
4.6
4.1
4
4
4
4.1
4.1
3.7
3.8
4.7
4
4.6
4.6
4.1
3.9
3.9
4.1
4.4
3.7
4.6
3.9
4.7
3.9
4.7
4.1
3.4
4.3
2.9
4.2
4.8
4.6
4.1
4
3.5
4
4.3
4.4
3.8
4
4.5
4.1
4.5
4.6
4.1
4.2
3.9
4
4.1
4.7
4.7
4
4.2
4.6
3.7
4.8
4.3
4.5
4.4
4.3
3.9
4.3
4.4
4.2
3.1
3.9
4.4
3.5
3.9
3.9
4.5
4.7
3.9
3.8
4
4.2
4.4
4.1
5
4.2
3.8
3.8
4.7
3.8
4.3
4.1
4
4.7
4.4
4.2
4
4.2
4.5
3.7
4.5
3.9
4.5
4.6
4
4.5
3.6
4.1
4.2
3.9
3.7
4
4.1
3.9
4.2
3.8
4.2
3.9
3.6
3.4
4
4.1
4
4.3
4.7
4.3
4.6
3.9
3.6
4.2
3.2
3.9
4.6
4.2
3.7
3.5
4
4.3
4.4
3.6
4.2
4.1
3.9
3.9
4.2
4
4.1
3.8
4.2
3.4
4.6
4.5
4.1
4.2
4.3
4.1
3.8
3.9
4.2
4.3
4.6
3.7
4.4
4.6
3.6
4.2
4.1
4
3.9
3.8
4.4
4.4
4.1
3.6
4.9
3.5
4
3.9
3.9
3.7
3.4
3.9
4
3.9
3.7
4.7
4
4.4
3.9
4.4
3.8
4.6
4.3
4.2
4.3
3.8
4.4
4.5
3.9
4.6
4.4
3.8
3.7
4.2
3.7
3.7
3.5
4.5
3.2
4.3
4
4
4.1
4.4
3.7
4.1
4.4
3.7
3.2
5
3.9
4.2
4.3
3.5
4
4.3
4.1
4.5
4.3
4.6
3.6
3.6
4
4.9
4.9
4
3.6
3.8
4.4
3.8
4.4
4
3.7
4.3
3.8
3.6
4.2
4.2
4.3
3.9
4.7
2.9
4.2
3.9
4
3.2
4.2
4.1
4.5
4
4.3
3.6
4
4
4.1
4.4
4.6
4.1
4.1
3.8
3.9
3.7
4.9
3.7
3.9
4.2
4.1
4.2
4
3.8
4.3
3.7
3.7
4.2
4.5
4
3.7
4.5
3.5
4.4
4.2
4.1
3.8
3.9
4
3.5
4.3
4.2
4.1
4.2
4.4
4.6
3.8
4.1
4.2
4.4
3.2
3.6
4.1
4.2
4.1
4.1
4.5
4.3
4
3.8
3.9
4.3
4.7
4.2
3.6
3.7
3.6
4.1
4.8
3.9
4.1
3.8
4.3
4.2
4.1
4
3.8
4.6
3.9
4.1
3.9
3.9
3.8
4
3.9
4.2
3.8
3.5
4.2
4.1
3.2
4
4.6
4.6
4.8
3.2
4.1
3.6
4.4
3.9
4
4
3.7
3.7
4.3
4.2
3.6
3.9
4.3
4.1
4.3
4.3
4
4.3
3.9
4.1
3.8
3.9
4
4.1
4.5
3.9
4.6
4
3.8
3.9
4.1
5
5
4.1
4.3
3.2
3.9
4
4.6
4.1
3.5
4.6
3.9
4.7
4
3.7
4.2
3.9
3.5
4.1
4.5
4.1
4.2
4.1
4.1
4.4
4.4
4.2
4.1
3.9
3.7
3.9
3.5
4.5
4.8
4.3
4
3.4
3.9
4.6
3.8
3.7
3.8
3.9
3.8
4.3
3.9
4.1
4.2
3.8
4.1
3.2
3.9
3.7
4
4
4.2
4.1
4.2
4.2
3.9
3.8
3.9
4
4.8
4.2
4
3.5
4.2
3.8
4.2
4.3
4.5
3.8
3.8
4
4.3
4.4
4
3.6
4
4.7
4.9
4.1
3.8
4.4
4.1
3.1
4.6
4.3
4.8
4.2
3.3
3.5
4.5
4.2
3.5
3.8
4
3.9
4.2
4.2
4.2
3.6
4.3
4.8
4.2
3.7
3.9
3.5
4.5
4.2
4.4
4.1
4.1
3.9
3.9
4.3
4.7
3.9
4.9
4.4
4.1
3.7
3.7
3.5
4.2
3.8
4
4.1
4.9
4.2
4.2
4.4
3.9
4
3.7
4.4
3.7
3.5
3.7
3.7
3.9
5
3.8
4.1
3.3
3.8
4
4.4
3.5
3.8
4.7
4
3.9
3.9
4.6
4.1
4.2
4.3
4.4
4.1
4.2
4.2
4.5
4.4
3.8
3.3
4.1
4
4.1
3.9
3.3
4.4
3.8
4.2
3.7
3.9
4.3
4.4
4.2
4.1
4.2
4.4
3.8
3.8
4.5
4.3
4
4.5
4.2
4.8
4
4.3
4.3
4
4.2
4.5
4.9
3.8
3.3
3.7
4.3
3.7
4.2
3.8
4.1
4.2
4.7
4.1
4.1
4.3
3.6
4.3
3.7
3.5
4.5
4
4.4
3.7
4.1
4
3.7
3.8
4.2
4.4
4.4
3.9
3.5
3.9
3.7
3.9
4
4.2
4.2
4.7
3.4
3.8
3.3
3.7
4.2
4
3.8
3.8
4.2
4.3
4.7
4.4
3.5
4.2
4
3.6
4.1
4.2
4.3
4.1
4.1
4
3.5
4.5
3.9
4.1
4.1
4.5
3.9
3.9
4.3
4.9
4
4.2
4.3
3.6
3.8
4.2
3.4
4.2
4.6
4.1
4.5
3.9
3.4
4
4.2
4.8
4.3
4.7
3.2
4
3.9
4.1
4
3.8
4.3
3.5
4
3.9
4.3
3.6
4.3
4.4
4.2
4
3.4
4.4
4.4
4.2
3.9
4.5
4.2
3.7
4.2
3.8
4.1
3.7
4
4
3.8
3.9
4
3.7
3.9
3.8
3.2
4.1
4
4.2
3.8
4.3
4.6
4.1
2.9
3.4
4
3.8
4.2
3.5
3.6
3.4
4
4.3
4.1
3.9
4.5
4.4
4
4.3
3.7
4.6
4.5
3.6
3.6
4.1
2.7
4.8
3.9
4.4
4.3
4.8
4
4.2
3.9
4.1
3.9
4.5
4
4.2
4.5
3.9
3.8
3.8
4.2
4.1
3.9
3.5
3.8
4
3.8
3.7
3.4
4.3
3.5
4
4.6
4.1
3.8
4
3.6
4.2
4.3
4.8
3.9
4.7
4.1
4.2
4.1
4.5
3.8
3.9
4.1
4.2
4.4
4.8
4.1
4.4
4
3.9
3.9
3.7
4.4
3.9
3.9
4.1
3.8
3.9
4.1
4.5
4.2
4.9
4.2
4
4.4
4.4
3.9
4.5
4.7
4.1
3.9
4
4.1
4.8
3.9
4.2
4.4
4.3
4.1
4
4.2
4
3.7
4.1
4.9
4.1
4.1
4
4.5
4.3
4.1
4.2
3.6
4
3.9
4.5
3.7
3.7
4.4
3.8
4.7
4
4.3
4
3.9
4.1
4.2
4
4.3
4.9
4.1
4.4
4.3
3.8
4.5
3.8
3.8
3.5
4.1
3.8
4.6
4.9
4.3
3.9
4.7
4.2
4.3
4.1
4.1
4.1
4.7
4
4
4.2
4.4
4.2
3.9
4.5
4.2
4.4
3.4
5
4.5
4.1
4.1
4.2
4.2
4.5
3.8
4.2
4.4
4.2
4.5
3.5
4.7
3.4
4
4.2
4.4
3.7
3.8
3.8
3.7
5
3.7
4.6
4.2
4.2
3.9
3.8
4.2
4
4.3
4.3
3.9
3.5
4.5
3.9
4
3.6
4.1
4.2
4.4
4.6
3.8
4.6
3.8
4.5
4
4.5
5
3.7
4.5
4
3.7
4.3
3.8
4.3
4.7
3.7
3.8
4.4
4.1
3.9
3.7
3.8
4.3
3.9
3.8
4.1
4.5
4.3
3.9
4.5
4.2
3.6
3.7
4.2
4.3
4.7
3.9
3.9
3.7
3.8
4.3
4.3
4.1
3.9
3.8
4.3
4.1
4.4
4.4
4.4
4.3
4.1
4.9
4.3
4
3.7
4.2
4.3
4.9
3.5
3.9
3.8
4.4
3.3
3.8
4.1
3.9
4.2
3.6
3.6
4.2
4.2
4.5
3.9
4.2
3.7
3.9
4.1
4
4
3.9
4
4.1
4.2
4.2
4
4.6
3.8
3.9
4
4
3.7
4
3.9
3.8
3.9
4.3
4.3
3.7
4.2
4
4.1
3.6
4
3.6
4
4.2
4.4
4.3
4.8
4.3
3.5
4
4
3.7
3.6
4.7
3.8
4
3.9
4.4
4.1
4
4.6
4.2
3.7
3.7
4.4
4.4
4.6
4.4
4.4
4.2
3.6
4.1
4.1
3.8
4.5
4.5
4
5
3.7
4
3.7
3.8
3.8
3.8
4.7
3.9
5
4
3.9
4.1
4
3.7
4.1
5
4.3
3.7
3.6
3.9
4.3
4
3.7
4.1
4.2
4
3.9
3.8
3.8
3.9
4
4.3
4.9
4.2
3.9
4.2
5
4
4.1
3.7
4.3
4.1
4.3
4.3
3.8
4.4
4.7
4
3.9
4
4.7
4.5
3.7
4.3
3.8
4.7
3.4
4.4
4.3
4.1
4.2
4.3
3.6
4
4.2
4.2
3.9
4
4.3
4.9
4.4
4.2
4.3
3.9
4
4
4
4.2
4.2
4.5
4.1
3.6
3.5
RMSE: 0.95
